<svg xmlns="http://www.w3.org/2000/svg" width="19" height="20" viewBox="0 0 19 20">
    <path fill="#FFA360" fill-rule="evenodd" d="M6.555 9.043H4.592v1.914h1.963V9.043zm3.927 0H8.518v1.914h1.964V9.043zm3.926 0h-1.963v1.914h1.963V9.043zm-7.853 2.963H4.592v1.914h1.963v-1.914zm3.927 0H8.518v1.914h1.964v-1.914zm3.926 0h-1.963v1.914h1.963v-1.914zM6.555 14.97H4.592v1.914h1.963v-1.914zm3.927 0H8.518v1.914h1.964v-1.914zm3.926 0h-1.963v1.914h1.963v-1.914zm1.964-12.623h-.982V.432h-1.963v1.914H5.573V.432H3.61v1.914h-.982c-1.09 0-1.953.86-1.953 1.913l-.01 13.395c0 1.053.874 1.914 1.963 1.914h13.744c1.08 0 1.963-.861 1.963-1.914V4.26c0-1.052-.884-1.913-1.963-1.913zm0 15.308H2.628V7.13h13.744v10.524z"/>
</svg>
