<svg xmlns="http://www.w3.org/2000/svg" width="375" height="924" viewBox="0 0 375 924">
    <g fill="none" fill-rule="evenodd">
        <path fill="#FFF" d="M0 0h375v1289H0z"/>
        <path fill="#DEDEDE" d="M60 733.359L541.206 120l94.567 550.203-272.659 186.506z" opacity=".296" style="mix-blend-mode:multiply"/>
        <path fill="#D8D8D8" d="M-190.115 318.25L-229-168l572.481 386.348L113 441.601z" opacity=".188" style="mix-blend-mode:multiply"/>
    </g>
</svg>
