<svg xmlns="http://www.w3.org/2000/svg" width="351" height="166" viewBox="0 0 351 166">
    <defs>
        <linearGradient id="a" x1="50%" x2="50%" y1="0%" y2="199.644%">
            <stop offset="0%" stop-color="#FF7720"/>
            <stop offset="100%" stop-color="#FFFE5F"/>
        </linearGradient>
        <linearGradient id="b" x1="50%" x2="50%" y1="0%" y2="100%">
            <stop offset="0%" stop-color="#004396"/>
            <stop offset="100%" stop-color="#1D5ACE"/>
        </linearGradient>
    </defs>
    <g fill="none" fill-rule="evenodd">
        <path fill="url(#a)" d="M69 0h375v1289H69z" transform="translate(-82 -737)"/>
        <path fill="#E8A5FF" d="M-43.115 351.25L-82-135l572.481 386.348L260 474.601z" opacity=".188" style="mix-blend-mode:multiply"/>
        <g>
            <path fill="url(#b)" d="M0 0h350.441v166H0z"/>
            <path fill="#FFF" d="M24.71 183.871L111.263 27l279.62 188.567z" opacity=".111" style="mix-blend-mode:overlay"/>
        </g>
    </g>
</svg>
