<svg xmlns="http://www.w3.org/2000/svg" xmlns:xlink="http://www.w3.org/1999/xlink" width="28" height="28" viewBox="0 0 28 28">
    <defs>
        <ellipse id="b" cx="54.054" cy="249.991" rx="11.054" ry="10.991"/>
        <filter id="a" width="140.7%" height="140.9%" x="-20.4%" y="-20.5%" filterUnits="objectBoundingBox">
            <feOffset in="SourceAlpha" result="shadowOffsetOuter1"/>
            <feGaussianBlur in="shadowOffsetOuter1" result="shadowBlurOuter1" stdDeviation="1.5"/>
            <feColorMatrix in="shadowBlurOuter1" values="0 0 0 0 0.362085459 0 0 0 0 0.362085459 0 0 0 0 0.362085459 0 0 0 0.356119792 0"/>
        </filter>
    </defs>
    <g fill="none" fill-rule="evenodd" transform="translate(-40 -236)">
        <use fill="#000" filter="url(#a)" xlink:href="#b"/>
        <use fill="#FFF" xlink:href="#b"/>
    </g>
</svg>
